http://blog.bladeism.com/kioptrix-level-1/
https://roskyfrosky.github.io/vulnhub/2017/04/01/Kioptrix1.0-vulnhub.html
http://www.varunchaudhry.in/2017/03/kioptrix-level-1/
https://n0tty.github.io/2017/02/25/kioptrix-1/
https://hackeretico.org/kioptrix-level-1-1-walkthrough/
ttp://www.gcura.tech/vulnhub-kioptrix-level-1/
https://pentestimonials.wordpress.com/2017/01/31/kioptrix-1/
http://www.securitysidebar.com/2017/01/kioptrix-level-1_99.html
https://jhalon.github.io/vulnhub-kioptrix1/
http://ihack4falaf3l.tk/index.php/2016/11/12/kioptrix-level-1-write-up/
http://www.abatchy.com/2016/11/kioptrix-1-walkthrough-vulnhub.html
https://ub3rsec.github.io/pages/2016/kioptrix_level_1_mod_ssl.html
https://ub3rsec.github.io/pages/2016/kioptrix_level_1_samba.html
https://kongwenbin.wordpress.com/2016/10/25/writeup-for-kioptrix-level-1/
https://yuriystanchev.blogspot.co.uk/2016/08/kioptrix-level-1.html
https://rgolebiowski.blogspot.co.uk/2016/07/kioptrix-1.html
https://wg135.github.io/blog/2016/06/06/vulhub-kioptrix-level-1/
https://netsec365.wordpress.com/2016/05/21/kioptrix-l1/
http://hacktips.it/imparare-sfruttare-vulnerabilita-kioptrix-livello-1/
http://www.nightm0de.com/kioptrix1/
http://ly0n.me/2015/06/04/hacking-series-kioptrix-level-1/
http://www.doyler.net/security-not-included/kioptrix-level-1-walkthrough
https://jkad.github.io/blog/2015/02/15/kioptrix-level-1/
http://www.mogozobo.com/?p=2236
http://www.jamesbower.com/2014/08/kioptrix-level-1-walkthrough.html
https://chousensha.github.io/blog/2014/06/12/pentest-lab-kioptrix-level-1/
http://paulsec.github.io/blog/2014/04/14/kioptrix-1-write-up/
http://rastamouse.me/blog/2013/kioptrix-level-1/
http://forelsec.blogspot.com/2012/12/solving-kioptrix-level-1.html
http://blog.techorganic.com/2012/07/kioptrix-hacking-challenge-part-1.html?view=sidebar
https://blog.g0tmi1k.com/2011/02/kioptrix-level-1-modssl/
http://fallensnow-jack.blogspot.com/2012/02/learning-kioptrix-level-one-samba.html
http://fallensnow-jack.blogspot.com/2012/01/learning-kioptrix-level-one-modssl.html
https://blog.g0tmi1k.com/2011/03/kioptrix-level-1-samba/
https://volta-sec.blogspot.co.uk/2017/02/kioptrix-level-1-via-smb.html
https://volta-sec.blogspot.co.uk/2017/02/kioptrix-level-1-via-web-vuln.html
