https://www.youtube.com/watch?v=tI592BjTd4o
https://medium.com/secjuice/hackthebox-shrek-writeup-46b8907fbc43
https://drive.google.com/file/d/13uaCnEifa8n2LyxRQ6278Mj3lWvNegj9/view
https://www.hackingarticles.in/hack-the-box-challenge-shrek-walkthrough
