https://raw.githubusercontent.com/JesseClarkND/codeabbey_in_C-NET/master/Variable%20Length%20Code
https://raw.githubusercontent.com/chrisdfrey/code-abbey-solutions/master/variable-length-code-unpack.py

