https://raw.githubusercontent.com/fuwutu/CodeForces/master/330A%20-%20Cakeminator.cpp
https://raw.githubusercontent.com/adityagupta1089/Codeforces-Solutions/master/P330A.java
https://raw.githubusercontent.com/changyuheng/codeforces-solutions/master/330a.py
