https://www.youtube.com/watch?v=U6ilcCE67Xo
https://www.youtube.com/watch?v=6zdvJpNibhc
http://sp4hack.blogspot.com.co/2012/10/hack-this-site-realistic-9.html
http://www.amitghosh.net/hts-realistic-mission-9-solution/
http://www.gensale.net/hts-realistic-level-9/
https://www.aldeid.com/wiki/Hackthissite/Realistic/Level9
