https://gist.githubusercontent.com/yuheiomori/2664672/raw/ff25b67806bc1152987e56eda91fe95b09e6b843/longest_lines.py
https://raw.githubusercontent.com/schrodervictor/codeeval-challenges/master/moderate/Longest-Lines/solution.php
https://raw.githubusercontent.com/pascal-bourut/codeeval-challenges/master/moderate/2%20-%20Longest%20lines/2.js
https://raw.githubusercontent.com/jtibbertsma/code-eval/master/longest-lines/longest.c
https://raw.githubusercontent.com/jtibbertsma/code-eval/master/longest-lines/longest.rb
