https://gist.githubusercontent.com/cmatthews85/fe30882544205b6993ab/raw/e52c8a49b852571b01446dcd9cc14377662c947a/neumanns_random_generator.py
https://raw.githubusercontent.com/gravoo/codeabbey/master/Neumann's%20Random%20Generator.cpp
https://raw.githubusercontent.com/JFMurphy/Codeabbey-solutions/master/Java/P024_NuemannsRandomGenerator.java
https://raw.githubusercontent.com/John-Russell/CodeAbbey/master/Neumanns%20Random%20Generator.rb
https://raw.githubusercontent.com/chriswood/codeabbey/master/caid24.lisp
https://raw.githubusercontent.com/AleksandrSD/CodeAbbeyProblems/master/Problem24/Program.cs
https://raw.githubusercontent.com/mpeshehonov/Codeabbey/master/practice/%2324/index.php
https://raw.githubusercontent.com/mmcdon20/code_abbey/master/src/main/scala/Abbey024.scala
https://raw.githubusercontent.com/javilag/codeAbbeyChalls/master/Challs/Go/024.go
https://raw.githubusercontent.com/JesseClarkND/codeabbey_in_C-NET/master/Neumann's%20Random%20Generator
