https://raw.githubusercontent.com/Daeinar/cryptopals/master/src/c21.rs
https://raw.githubusercontent.com/jaybosamiya/cryptopals-solutions/master/set3/21/mersenne.py
https://raw.githubusercontent.com/jaybosamiya/cryptopals-solutions/master/set3/21/run.py
https://raw.githubusercontent.com/akalin/cryptopals-python3/master/challenge21.py
https://raw.githubusercontent.com/technion/matasano_challenge/master/set3/chal21/chal21.rb
