https://raw.githubusercontent.com/nayuki/Project-Euler-solutions/master/java/p091.java
https://raw.githubusercontent.com/nayuki/Project-Euler-solutions/master/python/p091.py
https://www.mathblog.dk/project-euler-91-right-angle-triangles-quadrant/
