http://rgolebiowski.blogspot.com/2016/02/brain-pain.html
https://www.youtube.com/watch?v=qwos6n6USE4
https://www.mogozobo.com/?p=2324
http://devloop.users.sourceforge.net/index.php?article105/solution-du-ctf-brainpan-1
http://blog.pentests.pl/2014/06/pentest-lab-brainpan-probably-the-fastest.html
https://resources.infosecinstitute.com/brainpan_virtual_machine/
http://www.daftandcurious.com/2013/04/brainpan-journey-into-exploit.html
http://forelsec.blogspot.com/2013/04/solving-brainpan.html
https://blog.vonhewitt.com/2017/11/brainpan1/
https://www.doyler.net/security-not-included/brainpan-1-walkthrough
https://l3nblog.wordpress.com/2018/03/25/brainpan-1-oscp-vulnhub-walkthrough/
https://www.sevenlayers.com/index.php/88-vulnhub-brainpan-1-walkthrough
https://resources.infosecinstitute.com/brainpan_virtual_machine/#gref
https://d7x.promiselabs.net/tag/brainpan-1/
https://www.youtube.com/watch?v=N6Cs3yVjdP8
https://www.youtube.com/watch?v=z7DQFgIBMq0
https://www.youtube.com/watch?v=ohCY8CD6mSs
