https://www.youtube.com/watch?v=c545Pcz6Ezw
https://www.youtube.com/watch?v=ZrgmSBGtHMc

http://idolagu.com/2018/09/deceitful-batman-crypto-challenges-hackthebox-eu.z1U1bzj_5jM.html
https://raw.githubusercontent.com/RomaniukVadim/wargaming-challenges/master/hackthebox/Crypto/Deceitful%20Batman.txt
