https://raw.githubusercontent.com/adityagupta1089/Codeforces-Solutions/master/P276B.java
https://raw.githubusercontent.com/AkashChandrakar/codeforces-solutions/master/c%2B%2B/276-B-15412931.cpp
https://raw.githubusercontent.com/DavidsonGuedes/Codeforces-Solved-Problems/master/276B.py
