https://raw.githubusercontent.com/habhab93/CodeEval-Ugly-Numbers/master/Main.java
https://raw.githubusercontent.com/rickychang/code-eval-scala/master/ugly-numbers/src/main/scala/Main.scala
https://raw.githubusercontent.com/mpillar/codeeval/master/2-hard/ugly-numbers/main.py
