https://raw.githubusercontent.com/mpillar/codeeval/master/1-moderate/word-chain/main.py
https://raw.githubusercontent.com/pascal-bourut/codeeval-challenges/master/moderate/135%20-%20Word%20chain/135.js
https://raw.githubusercontent.com/pascal-bourut/codeeval-challenges/master/moderate/135%20-%20Word%20chain/135.php
https://raw.githubusercontent.com/TheCK/codeChallenges/master/codeEval/src/main/java/org/ck/codeEval/medium/wordChain/Main.java
https://raw.githubusercontent.com/nikai3d/ce-challenges/master/moderate/word_chain.go
https://raw.githubusercontent.com/nikai3d/ce-challenges/master/moderate/word_chain.lua
