https://raw.githubusercontent.com/anomen-s/programming-challenges/master/root-me.org/Web-Server/SQL-injection-authentication/notes.txt
https://www.youtube.com/watch?v=F1Tm4b57ors
https://www.youtube.com/watch?v=Y7WXxmWKfxs
https://github.com/yelynn1/Root-me/blob/master/Web_server.md#25
https://raw.githubusercontent.com/RomaniukVadim/root-me/master/Web-Server/SQL%20Injection%20-%20Authentication
https://www.youtube.com/watch?v=TSqXkkOt6oM
https://www.youtube.com/watch?v=J6v_W-LFK1c
https://www.youtube.com/watch?v=glScQ9qqMlI
https://www.youtube.com/watch?v=lhz0M1X5aCI
https://www.youtube.com/watch?v=0_AN5FKsxaw
https://www.youtube.com/watch?v=SJgYdTckMBY
