https://raw.githubusercontent.com/nikai3d/ce-challenges/master/moderate/try_to_solve_it.c
https://raw.githubusercontent.com/nikai3d/ce-challenges/master/moderate/try_to_solve_it.clj
https://raw.githubusercontent.com/nikai3d/ce-challenges/master/moderate/try_to_solve_it.go
https://raw.githubusercontent.com/nikai3d/ce-challenges/master/moderate/try_to_solve_it.hs
https://raw.githubusercontent.com/nikai3d/ce-challenges/master/moderate/try_to_solve_it.lua
https://raw.githubusercontent.com/ferhatelmas/algo/master/codeEval/medium/try_to_solve_it.py
https://raw.githubusercontent.com/mpillar/codeeval/master/1-moderate/try-to-solve-it/main.cpp
https://raw.githubusercontent.com/TheCK/codeChallenges/master/codeEval/src/main/java/org/ck/codeEval/medium/trytosolveit/Main.java
