https://raw.githubusercontent.com/agusmakmun/CodeFights/master/solutions/c%2B%2B/isPangram.cpp
https://raw.githubusercontent.com/agusmakmun/CodeFights/master/solutions/java/isPangram.java
https://raw.githubusercontent.com/agusmakmun/CodeFights/master/solutions/javascript/isPangram.js
https://raw.githubusercontent.com/agusmakmun/CodeFights/master/solutions/python/2017/isPangram.py
