https://roskyfrosky.github.io/vulnhub/2017/04/01/Kioptrix2.0-vulnhub.html
http://www.varunchaudhry.in/2017/03/kioptrix-level-2/
https://netsecfocus.com/vulnhub-video-walkthrough-series-kioptrix-1-1/
http://www.gcura.tech/vulnhub-kioptrix-level-1-1-2/
https://hackeretico.org/practicas-kioptrix-level-1-1-2-walkthrough/
http://www.securitysidebar.com/2017/02/kioptrix-2.html
https://jhalon.github.io/vulnhub-kioptrix2/
http://www.abatchy.com/2016/12/kioptrix-2-walkthrough-vulnhub.html
https://kongwenbin.wordpress.com/2016/10/29/writeup-for-kioptrix-level-1-1-2/
https://ub3rsec.github.io/pages/2016/kioptrix_level_2_sql.html
https://yuriystanchev.blogspot.co.uk/2016/08/kioptrix-level-2.html
http://hacktips.it/imparare-sfruttare-vulnerabilita-kioptrix-livello-1-1/
https://www.youtube.com/watch?v=UYZOrPk6Pfc&amp;feature=youtu.be
https://rgolebiowski.blogspot.co.uk/2016/07/kioptrix-level-2.html
https://knxsecurity.org/2016/05/06/kioptrix-2/
http://www.nightm0de.com/kioptrix1.1/
http://ly0n.me/2015/06/06/hacking-series-kioptrix-level-2/
http://www.doyler.net/security-not-included/kioptrix-level-1-1-2-walkthrough
https://jkad.github.io/blog/2015/03/14/kioptrix-level-2/
https://chousensha.github.io/blog/2014/06/16/pentest-lab-kioptrix-level-2/
http://paulsec.github.io/blog/2014/04/15/kioptrix-2-write-up/
http://rastamouse.me/blog/2013/kioptrix-level-1-dot-1/
http://forelsec.blogspot.com/2012/12/solving-kioptrix-level-2.html
http://blog.techorganic.com/2012/07/kioptrix-hacking-challenge-part-2.html?view=sidebar
http://fallensnow-jack.blogspot.com/2012/05/learning-kioptrix-level-two-injection.html
http://www.zonbi.org/?p=777
https://blog.g0tmi1k.com/2011/02/kioptrix-level-2-injection/
https://volta-sec.blogspot.co.uk/2017/02/kioptrix-level-2-ping-this.html
