https://raw.githubusercontent.com/mneudert/codeeval/master/easy/read-more/js.js
https://raw.githubusercontent.com/mneudert/codeeval/master/easy/read-more/go.go
https://raw.githubusercontent.com/mneudert/codeeval/master/easy/read-more/rb.rb
https://raw.githubusercontent.com/SedaKunda/CodeEval/master/Easy-Level/ReadMore.java
