http://hackerorgsolution.blogspot.com.co/2014/09/steganographic.html
https://raw.githubusercontent.com/charles-wangkai/hacker.org/master/challenge/Steganographic.sh
https://raw.githubusercontent.com/luceatnobis/challenges/master/hacker.org/steganographic/solution
https://raw.githubusercontent.com/imaohw/hacker.org/master/014/solve.sh

