https://raw.githubusercontent.com/sile/euler.rs/master/euler_03/src/problem080.rs
https://raw.githubusercontent.com/nayuki/Project-Euler-solutions/master/java/p080.java
https://raw.githubusercontent.com/nayuki/Project-Euler-solutions/master/python/p080.py
https://www.mathblog.dk/project-euler-80-digits-irrational-square-roots/
