http://justpentest.blogspot.in/2015/06/de-ice-1.20b-walkthrough.html
https://blog.g0tmi1k.com/2011/08/de-icenet-v12b-120b-level-1-disk/
https://www.youtube.com/watch?v=bw-Z1d0FPNE
http://securenetworkmanagement.com/de-ice-s1-130/
http://www.hackingarticles.in/hack-the-de-ice-s1-130-boot2root-challenge/
http://www.cyberry.co.uk/vulnhub/de-ice-s1-130/
