https://gist.githubusercontent.com/saadzarook/2a83f12199f198cb9ffedbb3c381231f/raw/88d3a94d8fda358737b424712704ceb329667bcf/Birthday.c
https://raw.githubusercontent.com/danhenriquesc/hackerrank/master/algorithms/implementation/birthday_chocolate.cpp
https://raw.githubusercontent.com/RyanFehr/HackerRank/master/Algorithms/Implementation/Birthday%20Chocolate/Solution.cs
https://raw.githubusercontent.com/charles-wangkai/hackerrank/master/the-birthday-bar/Solution.java
https://raw.githubusercontent.com/143cracker/birthday-chocolate.py-/master/birthday.py
