18
19 15 16 4 14 12 10 4 16 9 16 5 6 7 9 10 10 14 9 19 5 2 17 14 11 3 4 4 11 7 4 10 2 19 13
11 4 17 8 11 13 12 16 19 19 7 9 13 14 9 17 15 6 11 6 8 13 9 17 19 11 7 2 10 18 15
2 13 8 12 7 18 8 6 17 13 14 11 8 4 8 4 9 18 8 15
16 13 11 7 18 12 16 17 8 17 18 19 5 11 7 3 18 11 19 12 6 10 19 8 17 3 16 15 10
7 6 5 17 12 4 10 8 2 16 5 19 16 9 10 4 11 9 13 10 19 18 19 18 7 16 2 3 11
14 17 14 17 15 6 2 6 13 2 2 17 19 17 6 10 19 16 17 13 6 16 12 6 15 17 2
19 12 5 13 10 18 11 6 5 11 10 17 11 11 14 11 8 19 19 8 15 16 2 2 13 13 6 8 10 6 4 10
8 3 7 6 12 11 10 4 19 7 14 11 19 5 17 19 4 6 14 19 7 14 12 18 18 19 9 5 3 17 2 9 19
14 12 17 4 14 17 9 8 8 9 12 6 8 15 11 2 14 17 15 7 15 13 6 4 17
2 17 15 19 5 10 11 3 12 6 19 2 12 8 9 4 12 16 18 4 16 12 19 12 17
6 4 18 3 10 18 19 6 18 5 14 9 6 6 13 6 7 6 12 14 9 5 10 7 7 7 18 6 17 16 2
18 18 5 8 16 4 12 14 7 7 4 12 11 16 16 16 2 8 11 10 11
15 17 7 14 4 5 10 4 7 8 2 10 15 17 13 8 12 18 13 15
5 11 6 2 12 13 11 2 5 11 16 2 17 10 5 2 18 7 8 7 8 17 2 6 10 8 17
2 12 17 5 4 4 5 14 15 15 15 19 6 12 2 4 3 5 5 19 11 11 7 18 8
5 16 14 2 5 15 13 2 18 15 5 3 10 19 16 5 18 3 15 19 6 16 5 9 16
18 4 13 7 10 17 4 4 17 8 18 11 9 16 6 12 18 14 11 15 18 10 17 14 9 3 11 12 10 8 7
10 19 14 18 16 17 3 13 5 19 5 13 16 9 5 14 4 14 9 3 5 7 15 12 8 7
