https://raw.githubusercontent.com/pedrovgs/Algorithms/master/src/main/java/com/github/pedrovgs/problem4/SquareRoot.java
https://gist.githubusercontent.com/hashimati/6bc6c7200227c238f4eb/raw/f4adc24d7d44e88ad9d7eb18d8e95808e51e5bff/BabylonianAlgorithm.py
https://gist.githubusercontent.com/jonnyli1125/4188092/raw/7406818a34821027851ba9e608d279dce7c43534/gistfile1.cs
https://raw.githubusercontent.com/gravoo/codeabbey/master/Square%20Root%20.cpp
https://raw.githubusercontent.com/chriswood/codeabbey/master/caid18.lisp
https://raw.githubusercontent.com/mpeshehonov/Codeabbey/master/practice/%2318/index.php
https://raw.githubusercontent.com/mmcdon20/code_abbey/master/src/main/scala/Abbey018.scala
https://raw.githubusercontent.com/javilag/codeAbbeyChalls/master/Challs/Go/018.go
https://raw.githubusercontent.com/skilled19/sols/master/gsou859-18-square-root.hs
