https://raw.githubusercontent.com/sile/euler.rs/master/euler_03/src/problem077.rs
https://raw.githubusercontent.com/smacke/project-euler/master/python/77.py
https://raw.githubusercontent.com/nayuki/Project-Euler-solutions/master/java/p077.java
https://www.mathblog.dk/project-euler-77-sum-of-primes-five-thousand-ways/
