https://raw.githubusercontent.com/RodneyShag/HackerRank_solutions/master/General%20Programming/Basic%20Programming/Sock%20Merchant/Solution.java
http://pidanic.com/en/blog/hackerrank-sock-merchant/#javascript
https://raw.githubusercontent.com/danhenriquesc/hackerrank/master/algorithms/implementation/sock_merchant.php
https://raw.githubusercontent.com/ynyeh0221/HackerRank/master/Sock%20Merchant.py
http://pidanic.com/en/blog/hackerrank-sock-merchant/#ruby
http://pidanic.com/en/blog/hackerrank-sock-merchant/#scala
