https://raw.githubusercontent.com/djcomidi/netforce/master/steganography/level807/solution.py
https://resources.infosecinstitute.com/defeating-steganography-solutions-to-net-force-ctf-challenges-using-practical-steganalysis/#gref

