https://coderinme.com/find-digits-hackerrank-problem-solution/
https://raw.githubusercontent.com/ShrikantJadhav/HackerRank-Solutions/master/FindDigits.cpp
https://raw.githubusercontent.com/RyanFehr/HackerRank/master/Algorithms/Implementation/Find%20Digits/Solution.cs
https://raw.githubusercontent.com/gersakbogdan/golang-hackerrank/master/find_digits.go
https://raw.githubusercontent.com/RyanFehr/HackerRank/master/Algorithms/Implementation/Find%20Digits/Solution.java
https://raw.githubusercontent.com/rdacquisto/hacker-rank/master/find-digits.js
https://raw.githubusercontent.com/rrylee/HackerRank-Solution/master/Algorithm/Implementation/4-find-digits.php
https://raw.githubusercontent.com/danhenriquesc/hackerrank/master/algorithms/implementation/find_digits.py
https://raw.githubusercontent.com/MaskRay/HackerRank/master/find-digits.rb
https://raw.githubusercontent.com/rofrol/rust-hackerrank/master/src/bin/find-digits.rs
http://pidanic.com/en/blog/hackerrank-find-digits/#scala
