https://www.youtube.com/watch?v=Cz6vQvGGiuc
https://www.youtube.com/watch?v=nnqvCEUJxIc
https://www.youtube.com/watch?v=OgXjUkZLodU
https://www.youtube.com/watch?v=5TsoDsoiR-c
https://www.youtube.com/watch?v=eZ-12gxdkkk
https://infosecuritygeek.com/hackthebox-bart/
https://www.absolomb.com/2018-07-15-HackTheBox-Bart/
https://video.hacking.reviews/2018/07/hackthebox-bart.html
http://www.hackingarticles.in/hack-the-box-bart-walkthrough/
https://dastinia.io/write-up/hackthebox/2018/07/14/hackthebox-bart/
https://github.com/Hackplayers/hackthebox-writeups/raw/master/machines/Bart/spenkk-bart.pdf
http://devloop.users.sourceforge.net/index.php?article166/solution-du-ctf-bart-de-hackthebox
