https://raw.githubusercontent.com/adityagupta1089/Codeforces-Solutions/master/P152C.java
https://raw.githubusercontent.com/DionysiosB/CodeForces/master/100-199/152C-PocketBook.cpp
https://raw.githubusercontent.com/Erfaniaa/Codeforces/master/152C-PocketBook.pas
