https://raw.githubusercontent.com/ThomasZumsteg/exercism-javascript/master/leap/leap.js
https://raw.githubusercontent.com/rootulp/exercism/master/python/leap/leap.py
https://raw.githubusercontent.com/rootulp/exercism/master/ruby/exercises/leap/year.rb
https://exercism.io/tracks/python/exercises/leap/solutions/aa0d5a7d38d5d4e7dca0cc2c
https://exercism.io/tracks/csharp/exercises/leap/solutions/b83c2ecde59543578cd8a4f00b2a32f3
https://exercism.io/tracks/erlang/exercises/leap/solutions/aee9e52b4e78423cbf9f957a5805f2cc
https://exercism.io/tracks/scala/exercises/leap/solutions/a319345b0cb548aa970a02bf12652f11
https://exercism.io/tracks/sml/exercises/leap/solutions/679d7dc50c144a6a986c6d8f3d887d46
https://exercism.io/tracks/go/exercises/leap/solutions/4406a0132ddb4bacb0d3f2f2dc6044d6
https://exercism.io/tracks/perl5/exercises/leap/solutions/6fa27d953e7fc6862bf6f2d0

