https://www.youtube.com/watch?v=cGLUjUHPuRw
https://alexandervoidstar.wordpress.com/2015/10/17/hackthis-crypt-level-5/
https://www.youtube.com/watch?v=V8t7gJgxoGg
https://www.youtube.com/watch?v=8-pqtDkaA_I
