https://codereview.stackexchange.com/questions/187591/stacks-balanced-brackets-hacker-rank
https://raw.githubusercontent.com/BlakeBrown/HackerRank-Solutions/master/Tutorials/Cracking%20the%20Coding%20Interview/Stacks%20-%20Balanced%20Brackets.cpp
https://raw.githubusercontent.com/rshaghoulian/HackerRank_solutions/master/Data%20Structures/Stacks/Balanced%20Brackets/Solution.java
https://raw.githubusercontent.com/ynyeh0221/HackerRank/master/Balanced%20Brackets.py
