
{
    "Version": "2012-10-17",
    "Id": "Policy1483721056780",
    "Statement": [
        {
            "Sid": "Stmt1483721019389",
            "Effect": "Allow",
            "Principal": {
                "AWS": "*"
            },
            "Action": "s3:GetObject",
            "Resource": "arn:aws:s3:::travisatfluid/*"
        },
        {
            "Sid": "Stmt1483721053274",
            "Effect": "Allow",
            "Principal": {
                "AWS": "*"
            },
            "Action": "s3:ListBucket",
            "Resource": "arn:aws:s3:::travisatfluid"
        }
    ]
}
