https://rgolebiowski.blogspot.co.uk/2016/08/loophole-challenge.html
http://devloop.users.sourceforge.net/index.php?article78/solution-du-ctf-rattus-loophole
http://blog.techorganic.com/2012/08/loophole-hacking-challenge.html?view=sidebar
