https://raw.githubusercontent.com/nayuki/Project-Euler-solutions/master/java/p033.java
https://raw.githubusercontent.com/zsiciarz/euler.rs/master/src/solutions/problem33.rs
https://raw.githubusercontent.com/kdungs/euler/master/033/euler_33.py
https://www.mathblog.dk/project-euler-33-fractions-unorthodox-cancelling-method/
https://github.com/zimpha/competitive-programming/raw/master/project-euler/volume01/33.cc
