https://raw.githubusercontent.com/adityagupta1089/Codeforces-Solutions/master/P610B.java
https://raw.githubusercontent.com/Waqar-107/Codeforces/master/B-set/610B.Vika%20and%20Squares.py
https://raw.githubusercontent.com/DionysiosB/CodeForces/master/610B-VikaAndSquares.cpp
