http://www.varunchaudhry.in/2017/03/kioptrix-level-3/
http://www.gcura.tech/kioptrix-level-1-2-3/
https://hackeretico.org/kioptrix-level-1-2-3-walkthrough/
http://www.securitysidebar.com/2017/02/kioptrix-level-3.html
https://jhalon.github.io/vulnhub-kioptrix3/
http://www.abatchy.com/2016/12/kioptrix-3-walkthrough-vulnhub.html
https://ub3rsec.github.io/pages/2016/kioptrix_level_3_sql.html
https://kongwenbin.wordpress.com/2016/10/30/writeup-for-kioptrix-level-1-2-3/
https://hacktips.it/imparare-a-sfruttare-vulnerabilita-kioptrix-livello-3/
https://yuriystanchev.blogspot.co.uk/2016/08/kioptrix-level-3.html
https://www.youtube.com/watch?v=DCugUEjXjJQ
http://www.nightm0de.com/kioptrix1.3/
http://www.nightm0de.com/kioptrix.1.2/
http://ly0n.me/2015/06/08/hacking-series-kioptrix-level-3/
http://www.doyler.net/security-not-included/kioptrix-level-1-2-3-walkthrough
https://chousensha.github.io/blog/2014/06/20/pentest-lab-kioptrix-level-3/
https://paulsec.github.io/blog/2014/06/12/kioptrix-3-write-up/
http://rastamouse.me/blog/2013/kioptrix-level-1-dot-2/
http://forelsec.blogspot.com/2012/12/solving-kioptrix-level-3.html
http://blog.techorganic.com/2012/07/kioptrix-hacking-challenge-part-3.html?view=sidebar
http://fallensnow-jack.blogspot.com/2012/06/learning-kioptrix-level-three.html
http://carlosrodallega.blogspot.co.uk/2012/02/kioptrix3-un-solucionario-confuso.html
http://vimeo.com/28327470
https://blog.g0tmi1k.com/2011/08/kioptrix-level-3/
https://volta-sec.blogspot.co.uk/2017/02/kioptrix-level-3-dont-forget-low.html
