https://raw.githubusercontent.com/travisjeffery/project-euler/master/1.clj
https://raw.githubusercontent.com/PawanAIT/hackerrank/master/Project%20Euler%20%231%3A%20Multiples%20of%203%20and%205.cpp
https://raw.githubusercontent.com/mattspaulding/hacker-rank/master/HackerRank/ProjectEuler/ProjectEuler001.cs
https://raw.githubusercontent.com/travisjeffery/project-euler/master/1.hs
https://raw.githubusercontent.com/DeltaForx/Hackerrank-Project-Euler/master/001_Project%20Euler%20%231.java
https://raw.githubusercontent.com/necolas/project-euler/master/001/001.js
https://raw.githubusercontent.com/necolas/project-euler/master/001/001.scala
https://raw.githubusercontent.com/Dalimil/ProjectEuler/master/Project_Euler_Solutions/Problem_%2301_Multiples_of_3_and_5.py
https://raw.githubusercontent.com/travisjeffery/project-euler/master/1.rb
https://raw.githubusercontent.com/munyari/programming-problems/master/euler/euler-1.rs
