https://raw.githubusercontent.com/mpillar/codeeval/master/1-moderate/jolly-jumpers/Main.java
https://raw.githubusercontent.com/pascal-bourut/codeeval-challenges/master/moderate/43%20-%20Jolly%20Jumpers/main.js
https://raw.githubusercontent.com/pascal-bourut/codeeval-challenges/master/moderate/43%20-%20Jolly%20Jumpers/main.php
