https://raw.githubusercontent.com/To1ne/cryptopals-c/master/challenge_04/main.c
https://raw.githubusercontent.com/shierve/matasano-crypto-challenges/master/set4.cc
https://raw.githubusercontent.com/adamenger/cryptopals-solutions/master/4/four.go
https://raw.githubusercontent.com/yaychris/cryptopals/master/src/challenge4.rs
https://raw.githubusercontent.com/Daeinar/cryptopals/master/src/c04.rs
https://raw.githubusercontent.com/jaybosamiya/cryptopals-solutions/master/set1/4/run.py
https://raw.githubusercontent.com/akalin/cryptopals-python3/master/challenge4.py
https://raw.githubusercontent.com/aklap/cryptopals-solutions/master/set_1/challenge4/solution4.py
https://raw.githubusercontent.com/ricpacca/cryptopals/master/S1C04.py
https://raw.githubusercontent.com/technion/matasano_challenge/master/set1/chal4/chal4.rb
