https://raw.githubusercontent.com/sile/euler.rs/master/euler_02/src/problem073.rs
https://raw.githubusercontent.com/nayuki/Project-Euler-solutions/master/java/p073.java
https://raw.githubusercontent.com/nayuki/Project-Euler-solutions/master/python/p073.py
https://www.mathblog.dk/project-euler-73-sorted-reduced-proper-fractions/
