https://www.youtube.com/watch?v=9MeBiP637ZA
https://epi052.gitlab.io/notes-to-self/blog/2018-10-05-hack-the-box-tartarsauce/
https://3mrgnc3.ninja/tartarsauce/
https://forum.hackthebox.eu/discussion/1198/tar-tar-root-txt-write-up#latest.
https://medium.com/@DRX_Sicher/walkthrough-tartarsauce-b325f3695c13
https://0xdf.gitlab.io/2018/10/20/htb-tartarsauce.html
https://www.hackingarticles.in/hack-the-box-tartarsauce-walkthrough/
