https://raw.githubusercontent.com/adityagupta1089/Codeforces-Solutions/master/P300A.py
https://raw.githubusercontent.com/AkashChandrakar/codeforces-solutions/master/c%2B%2B/300-A-13113542.cpp
https://raw.githubusercontent.com/mkirsche/Codeforces/master/300-A/300-A-3875776.java
