https://infosecuritygeek.com/root-me-command-control/
https://cysecguide.blogspot.com/2017/11/root-me-write-up-command-control-level-2.html
https://underc0de.org/foro/soluciones-de-wargames/(root-me)-file-insecure-storage-1/
https://www.reddit.com/r/forensics/comments/8v91dw/root_me_solutions_command_controllevel_2_forensic/
