https://raw.githubusercontent.com/ArnoldM904/CodeAbbey_Solutions/master/Python/id027-Bubble_Sort.py
https://raw.githubusercontent.com/gravoo/codeabbey/master/Bubble%20Sort%20.cpp
https://raw.githubusercontent.com/Tempurturtul/CodeAbbey/master/C%23/BubbleSort.cs
https://raw.githubusercontent.com/JFMurphy/Codeabbey-solutions/master/Java/P027_BubbleSort.java
https://raw.githubusercontent.com/John-Russell/CodeAbbey/master/Bubble%20Sort.rb
https://raw.githubusercontent.com/chriswood/codeabbey/master/caid27.lisp
https://raw.githubusercontent.com/danielmmetz/codeabbey/master/id27.hs
https://raw.githubusercontent.com/mpeshehonov/Codeabbey/master/practice/%2327/index.php
https://raw.githubusercontent.com/mmcdon20/code_abbey/master/src/main/scala/Abbey027.scala
https://raw.githubusercontent.com/McQuinTrix/CodeAbbey/master/27.%20Bubble_Sort.js
https://raw.githubusercontent.com/JesseClarkND/codeabbey_in_C-NET/master/Bubble%20Sort
