https://raw.githubusercontent.com/mpillar/codeeval/master/1-moderate/mth-to-last-element/Main.java
https://raw.githubusercontent.com/pascal-bourut/codeeval-challenges/master/moderate/10%20-%20Mth%20to%20last%20element/10.js
https://raw.githubusercontent.com/pascal-bourut/codeeval-challenges/master/moderate/10%20-%20Mth%20to%20last%20element/10.php
