https://lamehackersguide.blogspot.com/2016/10/how-i-rooted-vulnimage-1.html
http://devloop.users.sourceforge.net/index.php?article80/solution-du-ctf-vulnimage
http://blog.techorganic.com/2012/08/vulnimage-hacking-challenge.html?view=sidebar
https://blog.g0tmi1k.com/2011/12/vulnimage-manual-method/
https://blog.g0tmi1k.com/2011/12/vulnimage-automated-method/
