https://raw.githubusercontent.com/nayuki/Project-Euler-solutions/master/java/p127.java
https://raw.githubusercontent.com/nayuki/Project-Euler-solutions/master/python/p127.py
https://www.mathblog.dk/project-euler-127-abc-hits/
