https://github.com/smholsen/backdoorctf/tree/master/beginners/batman#description
https://www.youtube.com/watch?v=oHlSFlZ-s-8
https://www.youtube.com/watch?v=jhWRlSVT8U0
https://www.youtube.com/watch?v=DB8N72M-bCA
